AID,OFFER_ID,UID,EMAIL
1SmX2wM3Na,OF0HSEPT6IRK,some-user1@yahoo.com,some-user1@yahoo.com
1SmX2wM3Na,OF8P19V,some-user1@yahoo.com,some-user1@yahoo.com
1SmX2wM3Na,OFTBOIHICFCX,some-user1@yahoo.com,some-user1@yahoo.com
1SmX2wM3Na,OFYX0XXGRFGK,some-user1@yahoo.com,some-user1@yahoo.com
1SmX2wM3Na,OF7QDWN7LSB8,some-user1@yahoo.com,some-user1@yahoo.com
1SmX2wM3Na,OFC17POFH6RR,some-user1@yahoo.com,some-user1@yahoo.com
1SmX2wM3Na,OFELYDMXKULV,some-user1@yahoo.com,some-user1@yahoo.com
1SmX2wM3Na,OF1IJ6BSB9ZN,some-user1@yahoo.com,some-user1@yahoo.com
1SmX2wM3Na,OF2OP4HJQ7UH,some-user1@yahoo.com,some-user1@yahoo.com
1SmX2wM3Na,OFUAPZYRMRP6,some-user1@yahoo.com,some-user1@yahoo.com
1SmX2wM3Na,OFQ75TZUBL3F,some-user1@yahoo.com,some-user1@yahoo.com
1SmX2wM3Na,OFZ5R84E7O8A,some-user1@yahoo.com,some-user1@yahoo.com
1SmX2wM3Na,OFJVS30D3LQ9,some-user1@yahoo.com,some-user1@yahoo.com
1SmX2wM3Na,OF8QE3QNN04U,some-user1@yahoo.com,some-user1@yahoo.com
1SmX2wM3Na,OF1IJ6BSB9ZN,999999,glawniczak@gel4.com
1SmX2wM3Na,OF2OP4HJQ7UH,999999,glawniczak@gel4.com
1SmX2wM3Na,OFUAPZYRMRP6,999999,glawniczak@gel4.com
1SmX2wM3Na,OFQ75TZUBL3F,999999,glawniczak@gel4.com
1SmX2wM3Na,OFZ5R84E7O8A,999999,glawniczak@gel4.com
1SmX2wM3Na,OFJVS30D3LQ9,999999,glawniczak@gel4.com
1SmX2wM3Na,OF8QE3QNN04U,999999,glawniczak@gel4.com
1SmX2wM3Na,OF8P1D9MPO9V,999999,glawniczak@gel4.com
1SmX2wM3Na,OF0HSEPT6IRK,999999,glawniczak@gel4.com
1SmX2wM3Na,OFTBOIHICFCX,999999,glawniczak@gel4.com
1SmX2wM3Na,OFYX0XXGRFGK,999999,glawniczak@gel4.com
1SmX2wM3Na,OF7QDWN7LSB8,999999,glawniczak@gel4.com
1SmX2wM3Na,OFC17POFH6RR,999999,glawniczak@gel4.com
1SmX2wM3Na,OFELYDMXKULV,999999,glawniczak@gel4.com
1SmX2wM3Na,OFC17POFH6RR,95101,jbdent54@gmail.com
1SmX2wM3Na,OFELYDMXKULV,95101,jbdent54@gmail.com
1SmX2wM3Na,OFYX0XXGRFGK,95101,jbdent54@gmail.com
1SmX2wM3Na,OF7QDWN7LSB8,95101,jbdent54@gmail.com
1SmX2wM3Na,OFQ75TZUBL3F,95101,jbdent54@gmail.com
1SmX2wM3Na,OF1IJ6BSB9ZN,95101,jbdent54@gmail.com
1SmX2wM3Na,OF2OP4HJQ7UH,95101,jbdent54@gmail.com
1SmX2wM3Na,OFUAPZYRMRP6,95101,jbdent54@gmail.com
1SmX2wM3Na,OF8QE3QNN04U,95101,jbdent54@gmail.com
1SmX2wM3Na,OFZ5R84E7O8A,95101,jbdent54@gmail.com
1SmX2wM3Na,OFJVS30D3LQ9,95101,jbdent54@gmail.com
1SmX2wM3Na,OFTBOIHICFCX,95101,jbdent54@gmail.com
1SmX2wM3Na,OF8P1D9MPO9V,95101,jbdent54@gmail.com
1SmX2wM3Na,OF0HSEPT6IRK,95101,jbdent54@gmail.com
1SmX2wM3Na,OF1IJ6BSB9ZN,92346,jacpat80@yahoo.com
1SmX2wM3Na,OF2OP4HJQ7UH,92346,jacpat80@yahoo.com
1SmX2wM3Na,OFUAPZYRMRP6,92346,jacpat80@yahoo.com
1SmX2wM3Na,OFQ75TZUBL3F,92346,jacpat80@yahoo.com
1SmX2wM3Na,OFZ5R84E7O8A,92346,jacpat80@yahoo.com
1SmX2wM3Na,OFJVS30D3LQ9,92346,jacpat80@yahoo.com
1SmX2wM3Na,OF8QE3QNN04U,92346,jacpat80@yahoo.com
1SmX2wM3Na,OF8P1D9MPO9V,92346,jacpat80@yahoo.com
1SmX2wM3Na,OF0HSEPT6IRK,92346,jacpat80@yahoo.com
1SmX2wM3Na,OFTBOIHICFCX,92346,jacpat80@yahoo.com
1SmX2wM3Na,OFYX0XXGRFGK,92346,jacpat80@yahoo.com
1SmX2wM3Na,OF7QDWN7LSB8,92346,jacpat80@yahoo.com
1SmX2wM3Na,OFC17POFH6RR,92346,jacpat80@yahoo.com
1SmX2wM3Na,OFELYDMXKULV,92346,jacpat80@yahoo.com
1SmX2wM3Na,OF8QE3QNN04U,92089,jackie@rjpendleton.com
1SmX2wM3Na,OFZ5R84E7O8A,92089,jackie@rjpendleton.com
1SmX2wM3Na,OFJVS30D3LQ9,92089,jackie@rjpendleton.com
1SmX2wM3Na,OFTBOIHICFCX,92089,jackie@rjpendleton.com
1SmX2wM3Na,OF8P1D9MPO9V,92089,jackie@rjpendleton.com
1SmX2wM3Na,OF0HSEPT6IRK,92089,jackie@rjpendleton.com
1SmX2wM3Na,OFC17POFH6RR,92089,jackie@rjpendleton.com
1SmX2wM3Na,OFELYDMXKULV,92089,jackie@rjpendleton.com
1SmX2wM3Na,OFYX0XXGRFGK,92089,jackie@rjpendleton.com
1SmX2wM3Na,OF7QDWN7LSB8,92089,jackie@rjpendleton.com
1SmX2wM3Na,OFQ75TZUBL3F,92089,jackie@rjpendleton.com
1SmX2wM3Na,OF2OP4HJQ7UH,92089,jackie@rjpendleton.com
1SmX2wM3Na,OFUAPZYRMRP6,92089,jackie@rjpendleton.com
1SmX2wM3Na,OF1IJ6BSB9ZN,92089,jackie@rjpendleton.com
1SmX2wM3Na,OFZ5R84E7O8A,85124,greyno1@verizon.net
1SmX2wM3Na,OFJVS30D3LQ9,85124,greyno1@verizon.net
1SmX2wM3Na,OF8QE3QNN04U,85124,greyno1@verizon.net
1SmX2wM3Na,OF8P1D9MPO9V,85124,greyno1@verizon.net
1SmX2wM3Na,OF0HSEPT6IRK,85124,greyno1@verizon.net
1SmX2wM3Na,OFTBOIHICFCX,85124,greyno1@verizon.net
1SmX2wM3Na,OFYX0XXGRFGK,85124,greyno1@verizon.net
1SmX2wM3Na,OF7QDWN7LSB8,85124,greyno1@verizon.net
1SmX2wM3Na,OFC17POFH6RR,85124,greyno1@verizon.net
1SmX2wM3Na,OFELYDMXKULV,85124,greyno1@verizon.net
1SmX2wM3Na,OF2OP4HJQ7UH,85124,greyno1@verizon.net
1SmX2wM3Na,OFUAPZYRMRP6,85124,greyno1@verizon.net
1SmX2wM3Na,OFQ75TZUBL3F,85124,greyno1@verizon.net
1SmX2wM3Na,OF1IJ6BSB9ZN,85124,greyno1@verizon.net
1SmX2wM3Na,OFYX0XXGRFGK,84366,gra-son@swbell.net
1SmX2wM3Na,OF7QDWN7LSB8,84366,gra-son@swbell.net
1SmX2wM3Na,OFC17POFH6RR,84366,gra-son@swbell.net
1SmX2wM3Na,OFELYDMXKULV,84366,gra-son@swbell.net
1SmX2wM3Na,OF1IJ6BSB9ZN,84366,gra-son@swbell.net
1SmX2wM3Na,OF2OP4HJQ7UH,84366,gra-son@swbell.net
1SmX2wM3Na,OFUAPZYRMRP6,84366,gra-son@swbell.net
1SmX2wM3Na,OFQ75TZUBL3F,84366,gra-son@swbell.net
1SmX2wM3Na,OFZ5R84E7O8A,84366,gra-son@swbell.net
1SmX2wM3Na,OFJVS30D3LQ9,84366,gra-son@swbell.net
1SmX2wM3Na,OF8QE3QNN04U,84366,gra-son@swbell.net
1SmX2wM3Na,OF8P1D9MPO9V,84366,gra-son@swbell.net
1SmX2wM3Na,OF0HSEPT6IRK,84366,gra-son@swbell.net
1SmX2wM3Na,OFTBOIHICFCX,84366,gra-son@swbell.net
1SmX2wM3Na,OFUAPZYRMRP6,84048,goodag@hotmail.com
1SmX2wM3Na,OFQ75TZUBL3F,84048,goodag@hotmail.com
1SmX2wM3Na,OF1IJ6BSB9ZN,84048,goodag@hotmail.com
1SmX2wM3Na,OF2OP4HJQ7UH,84048,goodag@hotmail.com
1SmX2wM3Na,OFJVS30D3LQ9,84048,goodag@hotmail.com
1SmX2wM3Na,OF8QE3QNN04U,84048,goodag@hotmail.com
1SmX2wM3Na,OFZ5R84E7O8A,84048,goodag@hotmail.com
1SmX2wM3Na,OFTBOIHICFCX,84048,goodag@hotmail.com
1SmX2wM3Na,OF8P1D9MPO9V,84048,goodag@hotmail.com
1SmX2wM3Na,OF0HSEPT6IRK,84048,goodag@hotmail.com
1SmX2wM3Na,OFC17POFH6RR,84048,goodag@hotmail.com
1SmX2wM3Na,OFELYDMXKULV,84048,goodag@hotmail.com
1SmX2wM3Na,OFYX0XXGRFGK,84048,goodag@hotmail.com
1SmX2wM3Na,OF7QDWN7LSB8,84048,goodag@hotmail.com
1SmX2wM3Na,OFYX0XXGRFGK,83596,gmc@cunninghamarchitects.com
1SmX2wM3Na,OF7QDWN7LSB8,83596,gmc@cunninghamarchitects.com
1SmX2wM3Na,OFC17POFH6RR,83596,gmc@cunninghamarchitects.com
1SmX2wM3Na,OFELYDMXKULV,83596,gmc@cunninghamarchitects.com
1SmX2wM3Na,OF2OP4HJQ7UH,83596,gmc@cunninghamarchitects.com
1SmX2wM3Na,OFUAPZYRMRP6,83596,gmc@cunninghamarchitects.com
1SmX2wM3Na,OFQ75TZUBL3F,83596,gmc@cunninghamarchitects.com
1SmX2wM3Na,OF1IJ6BSB9ZN,83596,gmc@cunninghamarchitects.com
1SmX2wM3Na,OFJVS30D3LQ9,83596,gmc@cunninghamarchitects.com
1SmX2wM3Na,OF8QE3QNN04U,83596,gmc@cunninghamarchitects.com
1SmX2wM3Na,OFZ5R84E7O8A,83596,gmc@cunninghamarchitects.com
1SmX2wM3Na,OF8P1D9MPO9V,83596,gmc@cunninghamarchitects.com
1SmX2wM3Na,OF0HSEPT6IRK,83596,gmc@cunninghamarchitects.com
1SmX2wM3Na,OFTBOIHICFCX,83596,gmc@cunninghamarchitects.com
1SmX2wM3Na,OF7QDWN7LSB8,83362,glkita@sbcglobal.net
1SmX2wM3Na,OFC17POFH6RR,83362,glkita@sbcglobal.net
1SmX2wM3Na,OFELYDMXKULV,83362,glkita@sbcglobal.net
1SmX2wM3Na,OFYX0XXGRFGK,83362,glkita@sbcglobal.net
1SmX2wM3Na,OFUAPZYRMRP6,83362,glkita@sbcglobal.net
1SmX2wM3Na,OFQ75TZUBL3F,83362,glkita@sbcglobal.net
1SmX2wM3Na,OF1IJ6BSB9ZN,83362,glkita@sbcglobal.net
1SmX2wM3Na,OF2OP4HJQ7UH,83362,glkita@sbcglobal.net
1SmX2wM3Na,OFJVS30D3LQ9,83362,glkita@sbcglobal.net
1SmX2wM3Na,OF8QE3QNN04U,83362,glkita@sbcglobal.net
1SmX2wM3Na,OFZ5R84E7O8A,83362,glkita@sbcglobal.net
1SmX2wM3Na,OF0HSEPT6IRK,83362,glkita@sbcglobal.net
1SmX2wM3Na,OFTBOIHICFCX,83362,glkita@sbcglobal.net
1SmX2wM3Na,OF8P1D9MPO9V,83362,glkita@sbcglobal.net
1SmX2wM3Na,OF7QDWN7LSB8,81216,gayrevi@mac.com
1SmX2wM3Na,OFC17POFH6RR,81216,gayrevi@mac.com
1SmX2wM3Na,OFELYDMXKULV,81216,gayrevi@mac.com
1SmX2wM3Na,OFYX0XXGRFGK,81216,gayrevi@mac.com
1SmX2wM3Na,OFUAPZYRMRP6,81216,gayrevi@mac.com
1SmX2wM3Na,OFQ75TZUBL3F,81216,gayrevi@mac.com
1SmX2wM3Na,OF1IJ6BSB9ZN,81216,gayrevi@mac.com
1SmX2wM3Na,OF2OP4HJQ7UH,81216,gayrevi@mac.com
1SmX2wM3Na,OFJVS30D3LQ9,81216,gayrevi@mac.com
1SmX2wM3Na,OF8QE3QNN04U,81216,gayrevi@mac.com
1SmX2wM3Na,OFZ5R84E7O8A,81216,gayrevi@mac.com
1SmX2wM3Na,OF0HSEPT6IRK,81216,gayrevi@mac.com
1SmX2wM3Na,OFTBOIHICFCX,81216,gayrevi@mac.com
1SmX2wM3Na,OF8P1D9MPO9V,81216,gayrevi@mac.com
1SmX2wM3Na,OFTBOIHICFCX,78566,flbears2@yahoo.com
1SmX2wM3Na,OF8P1D9MPO9V,78566,flbears2@yahoo.com
1SmX2wM3Na,OF0HSEPT6IRK,78566,flbears2@yahoo.com
1SmX2wM3Na,OFELYDMXKULV,78566,flbears2@yahoo.com
1SmX2wM3Na,OFYX0XXGRFGK,78566,flbears2@yahoo.com
1SmX2wM3Na,OF7QDWN7LSB8,78566,flbears2@yahoo.com
1SmX2wM3Na,OFC17POFH6RR,78566,flbears2@yahoo.com
1SmX2wM3Na,OF1IJ6BSB9ZN,78566,flbears2@yahoo.com
1SmX2wM3Na,OF2OP4HJQ7UH,78566,flbears2@yahoo.com
1SmX2wM3Na,OFUAPZYRMRP6,78566,flbears2@yahoo.com
1SmX2wM3Na,OFQ75TZUBL3F,78566,flbears2@yahoo.com
1SmX2wM3Na,OFZ5R84E7O8A,78566,flbears2@yahoo.com
1SmX2wM3Na,OFJVS30D3LQ9,78566,flbears2@yahoo.com
1SmX2wM3Na,OF8QE3QNN04U,78566,flbears2@yahoo.com
1SmX2wM3Na,OF2OP4HJQ7UH,78218,fhughes458@aol.com
1SmX2wM3Na,OFUAPZYRMRP6,78218,fhughes458@aol.com
1SmX2wM3Na,OF1IJ6BSB9ZN,78218,fhughes458@aol.com
1SmX2wM3Na,OFQ75TZUBL3F,78218,fhughes458@aol.com
1SmX2wM3Na,OFZ5R84E7O8A,78218,fhughes458@aol.com
1SmX2wM3Na,OFJVS30D3LQ9,78218,fhughes458@aol.com
1SmX2wM3Na,OF8QE3QNN04U,78218,fhughes458@aol.com
1SmX2wM3Na,OF8P1D9MPO9V,78218,fhughes458@aol.com
1SmX2wM3Na,OF0HSEPT6IRK,78218,fhughes458@aol.com
1SmX2wM3Na,OFTBOIHICFCX,78218,fhughes458@aol.com
1SmX2wM3Na,OFYX0XXGRFGK,78218,fhughes458@aol.com
1SmX2wM3Na,OF7QDWN7LSB8,78218,fhughes458@aol.com
1SmX2wM3Na,OFC17POFH6RR,78218,fhughes458@aol.com
1SmX2wM3Na,OFELYDMXKULV,78218,fhughes458@aol.com
1SmX2wM3Na,OFC17POFH6RR,78165,fgb59h@hotmail.com
1SmX2wM3Na,OFELYDMXKULV,78165,fgb59h@hotmail.com
1SmX2wM3Na,OFYX0XXGRFGK,78165,fgb59h@hotmail.com
1SmX2wM3Na,OF7QDWN7LSB8,78165,fgb59h@hotmail.com
1SmX2wM3Na,OFQ75TZUBL3F,78165,fgb59h@hotmail.com
1SmX2wM3Na,OF1IJ6BSB9ZN,78165,fgb59h@hotmail.com
1SmX2wM3Na,OF2OP4HJQ7UH,78165,fgb59h@hotmail.com
1SmX2wM3Na,OFUAPZYRMRP6,78165,fgb59h@hotmail.com
1SmX2wM3Na,OFJVS30D3LQ9,78165,fgb59h@hotmail.com
1SmX2wM3Na,OF8QE3QNN04U,78165,fgb59h@hotmail.com
1SmX2wM3Na,OFZ5R84E7O8A,78165,fgb59h@hotmail.com
1SmX2wM3Na,OFTBOIHICFCX,78165,fgb59h@hotmail.com
1SmX2wM3Na,OF8P1D9MPO9V,78165,fgb59h@hotmail.com
1SmX2wM3Na,OF0HSEPT6IRK,78165,fgb59h@hotmail.com
1SmX2wM3Na,OF8P1D9MPO9V,76528,erol@swbell.net
1SmX2wM3Na,OF0HSEPT6IRK,76528,erol@swbell.net
1SmX2wM3Na,OFTBOIHICFCX,76528,erol@swbell.net
1SmX2wM3Na,OFELYDMXKULV,76528,erol@swbell.net
1SmX2wM3Na,OFYX0XXGRFGK,76528,erol@swbell.net
1SmX2wM3Na,OF7QDWN7LSB8,76528,erol@swbell.net
1SmX2wM3Na,OFC17POFH6RR,76528,erol@swbell.net
1SmX2wM3Na,OF1IJ6BSB9ZN,76528,erol@swbell.net
1SmX2wM3Na,OF2OP4HJQ7UH,76528,erol@swbell.net
1SmX2wM3Na,OFUAPZYRMRP6,76528,erol@swbell.net
1SmX2wM3Na,OFQ75TZUBL3F,76528,erol@swbell.net
1SmX2wM3Na,OFZ5R84E7O8A,76528,erol@swbell.net
1SmX2wM3Na,OFJVS30D3LQ9,76528,erol@swbell.net
1SmX2wM3Na,OF8QE3QNN04U,76528,erol@swbell.net
1SmX2wM3Na,OFYX0XXGRFGK,75921,erawls@swbell.net
1SmX2wM3Na,OF7QDWN7LSB8,75921,erawls@swbell.net
1SmX2wM3Na,OFC17POFH6RR,75921,erawls@swbell.net
1SmX2wM3Na,OFELYDMXKULV,75921,erawls@swbell.net
1SmX2wM3Na,OF2OP4HJQ7UH,75921,erawls@swbell.net
1SmX2wM3Na,OFUAPZYRMRP6,75921,erawls@swbell.net
1SmX2wM3Na,OFQ75TZUBL3F,75921,erawls@swbell.net
1SmX2wM3Na,OF1IJ6BSB9ZN,75921,erawls@swbell.net
1SmX2wM3Na,OFJVS30D3LQ9,75921,erawls@swbell.net
1SmX2wM3Na,OF8QE3QNN04U,75921,erawls@swbell.net
1SmX2wM3Na,OFZ5R84E7O8A,75921,erawls@swbell.net
1SmX2wM3Na,OF0HSEPT6IRK,75921,erawls@swbell.net
1SmX2wM3Na,OFTBOIHICFCX,75921,erawls@swbell.net
1SmX2wM3Na,OF8P1D9MPO9V,75921,erawls@swbell.net
1SmX2wM3Na,OF1IJ6BSB9ZN,74700,eliotjwalker@yahoo.com
1SmX2wM3Na,OF2OP4HJQ7UH,74700,eliotjwalker@yahoo.com
1SmX2wM3Na,OFUAPZYRMRP6,74700,eliotjwalker@yahoo.com
1SmX2wM3Na,OFQ75TZUBL3F,74700,eliotjwalker@yahoo.com
1SmX2wM3Na,OFZ5R84E7O8A,74700,eliotjwalker@yahoo.com
1SmX2wM3Na,OFJVS30D3LQ9,74700,eliotjwalker@yahoo.com
1SmX2wM3Na,OF8QE3QNN04U,74700,eliotjwalker@yahoo.com
1SmX2wM3Na,OF8P1D9MPO9V,74700,eliotjwalker@yahoo.com
1SmX2wM3Na,OF0HSEPT6IRK,74700,eliotjwalker@yahoo.com
1SmX2wM3Na,OFTBOIHICFCX,74700,eliotjwalker@yahoo.com
1SmX2wM3Na,OFELYDMXKULV,74700,eliotjwalker@yahoo.com
1SmX2wM3Na,OFYX0XXGRFGK,74700,eliotjwalker@yahoo.com
1SmX2wM3Na,OF7QDWN7LSB8,74700,eliotjwalker@yahoo.com
1SmX2wM3Na,OFC17POFH6RR,74700,eliotjwalker@yahoo.com
1SmX2wM3Na,OF2OP4HJQ7UH,72449,dwight@dwightspencer.com
1SmX2wM3Na,OFUAPZYRMRP6,72449,dwight@dwightspencer.com
1SmX2wM3Na,OFQ75TZUBL3F,72449,dwight@dwightspencer.com
1SmX2wM3Na,OF1IJ6BSB9ZN,72449,dwight@dwightspencer.com
1SmX2wM3Na,OFZ5R84E7O8A,72449,dwight@dwightspencer.com
1SmX2wM3Na,OFJVS30D3LQ9,72449,dwight@dwightspencer.com
1SmX2wM3Na,OF8QE3QNN04U,72449,dwight@dwightspencer.com
1SmX2wM3Na,OF8P1D9MPO9V,72449,dwight@dwightspencer.com
1SmX2wM3Na,OF0HSEPT6IRK,72449,dwight@dwightspencer.com
1SmX2wM3Na,OFTBOIHICFCX,72449,dwight@dwightspencer.com
1SmX2wM3Na,OFYX0XXGRFGK,72449,dwight@dwightspencer.com
1SmX2wM3Na,OF7QDWN7LSB8,72449,dwight@dwightspencer.com
1SmX2wM3Na,OFC17POFH6RR,72449,dwight@dwightspencer.com
1SmX2wM3Na,OFELYDMXKULV,72449,dwight@dwightspencer.com
1SmX2wM3Na,OFJVS30D3LQ9,70853,drew@quorumhotels.com
1SmX2wM3Na,OF8QE3QNN04U,70853,drew@quorumhotels.com
1SmX2wM3Na,OFZ5R84E7O8A,70853,drew@quorumhotels.com
1SmX2wM3Na,OF0HSEPT6IRK,70853,drew@quorumhotels.com
1SmX2wM3Na,OFTBOIHICFCX,70853,drew@quorumhotels.com
1SmX2wM3Na,OF8P1D9MPO9V,70853,drew@quorumhotels.com
1SmX2wM3Na,OF7QDWN7LSB8,70853,drew@quorumhotels.com
1SmX2wM3Na,OFC17POFH6RR,70853,drew@quorumhotels.com
1SmX2wM3Na,OFELYDMXKULV,70853,drew@quorumhotels.com
1SmX2wM3Na,OFYX0XXGRFGK,70853,drew@quorumhotels.com
1SmX2wM3Na,OFUAPZYRMRP6,70853,drew@quorumhotels.com
1SmX2wM3Na,OF1IJ6BSB9ZN,70853,drew@quorumhotels.com
1SmX2wM3Na,OFQ75TZUBL3F,70853,drew@quorumhotels.com
1SmX2wM3Na,OF2OP4HJQ7UH,70853,drew@quorumhotels.com
1SmX2wM3Na,OFZ5R84E7O8A,70366,dpatrickjordan@yahoo.com
1SmX2wM3Na,OFJVS30D3LQ9,70366,dpatrickjordan@yahoo.com
1SmX2wM3Na,OF8QE3QNN04U,70366,dpatrickjordan@yahoo.com
1SmX2wM3Na,OF8P1D9MPO9V,70366,dpatrickjordan@yahoo.com
1SmX2wM3Na,OF0HSEPT6IRK,70366,dpatrickjordan@yahoo.com
1SmX2wM3Na,OFTBOIHICFCX,70366,dpatrickjordan@yahoo.com
1SmX2wM3Na,OFYX0XXGRFGK,70366,dpatrickjordan@yahoo.com
1SmX2wM3Na,OF7QDWN7LSB8,70366,dpatrickjordan@yahoo.com
1SmX2wM3Na,OFC17POFH6RR,70366,dpatrickjordan@yahoo.com
1SmX2wM3Na,OFELYDMXKULV,70366,dpatrickjordan@yahoo.com
1SmX2wM3Na,OF1IJ6BSB9ZN,70366,dpatrickjordan@yahoo.com
1SmX2wM3Na,OF2OP4HJQ7UH,70366,dpatrickjordan@yahoo.com
1SmX2wM3Na,OFUAPZYRMRP6,70366,dpatrickjordan@yahoo.com
1SmX2wM3Na,OFQ75TZUBL3F,70366,dpatrickjordan@yahoo.com
1SmX2wM3Na,OFZ5R84E7O8A,69370,donald.hammer@gmail.com
1SmX2wM3Na,OFJVS30D3LQ9,69370,donald.hammer@gmail.com
1SmX2wM3Na,OF8QE3QNN04U,69370,donald.hammer@gmail.com
1SmX2wM3Na,OF8P1D9MPO9V,69370,donald.hammer@gmail.com
1SmX2wM3Na,OF0HSEPT6IRK,69370,donald.hammer@gmail.com
1SmX2wM3Na,OFTBOIHICFCX,69370,donald.hammer@gmail.com
1SmX2wM3Na,OFYX0XXGRFGK,69370,donald.hammer@gmail.com
1SmX2wM3Na,OF7QDWN7LSB8,69370,donald.hammer@gmail.com
1SmX2wM3Na,OFC17POFH6RR,69370,donald.hammer@gmail.com
1SmX2wM3Na,OFELYDMXKULV,69370,donald.hammer@gmail.com
1SmX2wM3Na,OF2OP4HJQ7UH,69370,donald.hammer@gmail.com
1SmX2wM3Na,OFUAPZYRMRP6,69370,donald.hammer@gmail.com
1SmX2wM3Na,OF1IJ6BSB9ZN,69370,donald.hammer@gmail.com
1SmX2wM3Na,OFQ75TZUBL3F,69370,donald.hammer@gmail.com
1SmX2wM3Na,OFUAPZYRMRP6,68414,dmarx@dallasnews.com
1SmX2wM3Na,OFQ75TZUBL3F,68414,dmarx@dallasnews.com
1SmX2wM3Na,OF1IJ6BSB9ZN,68414,dmarx@dallasnews.com
1SmX2wM3Na,OF2OP4HJQ7UH,68414,dmarx@dallasnews.com
1SmX2wM3Na,OFJVS30D3LQ9,68414,dmarx@dallasnews.com
1SmX2wM3Na,OF8QE3QNN04U,68414,dmarx@dallasnews.com
1SmX2wM3Na,OFZ5R84E7O8A,68414,dmarx@dallasnews.com
1SmX2wM3Na,OFTBOIHICFCX,68414,dmarx@dallasnews.com
1SmX2wM3Na,OF8P1D9MPO9V,68414,dmarx@dallasnews.com
1SmX2wM3Na,OF0HSEPT6IRK,68414,dmarx@dallasnews.com
1SmX2wM3Na,OF7QDWN7LSB8,68414,dmarx@dallasnews.com
1SmX2wM3Na,OFC17POFH6RR,68414,dmarx@dallasnews.com
1SmX2wM3Na,OFELYDMXKULV,68414,dmarx@dallasnews.com
1SmX2wM3Na,OFYX0XXGRFGK,68414,dmarx@dallasnews.com
1SmX2wM3Na,OF8P1D9MPO9V,65288,denise.cooper@utdallas.edu
1SmX2wM3Na,OF0HSEPT6IRK,65288,denise.cooper@utdallas.edu
1SmX2wM3Na,OFTBOIHICFCX,65288,denise.cooper@utdallas.edu
1SmX2wM3Na,OFYX0XXGRFGK,65288,denise.cooper@utdallas.edu
1SmX2wM3Na,OF7QDWN7LSB8,65288,denise.cooper@utdallas.edu
1SmX2wM3Na,OFC17POFH6RR,65288,denise.cooper@utdallas.edu
1SmX2wM3Na,OFELYDMXKULV,65288,denise.cooper@utdallas.edu
1SmX2wM3Na,OF1IJ6BSB9ZN,65288,denise.cooper@utdallas.edu
1SmX2wM3Na,OF2OP4HJQ7UH,65288,denise.cooper@utdallas.edu
1SmX2wM3Na,OFUAPZYRMRP6,65288,denise.cooper@utdallas.edu
1SmX2wM3Na,OFQ75TZUBL3F,65288,denise.cooper@utdallas.edu
1SmX2wM3Na,OFZ5R84E7O8A,65288,denise.cooper@utdallas.edu
1SmX2wM3Na,OFJVS30D3LQ9,65288,denise.cooper@utdallas.edu
1SmX2wM3Na,OF8QE3QNN04U,65288,denise.cooper@utdallas.edu
1SmX2wM3Na,OF2OP4HJQ7UH,64856,deechar@gmail.com
1SmX2wM3Na,OFUAPZYRMRP6,64856,deechar@gmail.com
1SmX2wM3Na,OF1IJ6BSB9ZN,64856,deechar@gmail.com
1SmX2wM3Na,OFQ75TZUBL3F,64856,deechar@gmail.com
1SmX2wM3Na,OFZ5R84E7O8A,64856,deechar@gmail.com
1SmX2wM3Na,OFJVS30D3LQ9,64856,deechar@gmail.com
1SmX2wM3Na,OF8QE3QNN04U,64856,deechar@gmail.com
1SmX2wM3Na,OFTBOIHICFCX,64856,deechar@gmail.com
1SmX2wM3Na,OF8P1D9MPO9V,64856,deechar@gmail.com
1SmX2wM3Na,OF0HSEPT6IRK,64856,deechar@gmail.com
1SmX2wM3Na,OFELYDMXKULV,64856,deechar@gmail.com
1SmX2wM3Na,OFYX0XXGRFGK,64856,deechar@gmail.com
1SmX2wM3Na,OF7QDWN7LSB8,64856,deechar@gmail.com
1SmX2wM3Na,OFC17POFH6RR,64856,deechar@gmail.com
1SmX2wM3Na,OFTBOIHICFCX,63458,dcaldwell@sbcglobal.net
1SmX2wM3Na,OF8P1D9MPO9V,63458,dcaldwell@sbcglobal.net
1SmX2wM3Na,OF0HSEPT6IRK,63458,dcaldwell@sbcglobal.net
1SmX2wM3Na,OFC17POFH6RR,63458,dcaldwell@sbcglobal.net
1SmX2wM3Na,OFELYDMXKULV,63458,dcaldwell@sbcglobal.net
1SmX2wM3Na,OFYX0XXGRFGK,63458,dcaldwell@sbcglobal.net
1SmX2wM3Na,OF7QDWN7LSB8,63458,dcaldwell@sbcglobal.net
1SmX2wM3Na,OFQ75TZUBL3F,63458,dcaldwell@sbcglobal.net
1SmX2wM3Na,OF1IJ6BSB9ZN,63458,dcaldwell@sbcglobal.net
1SmX2wM3Na,OF2OP4HJQ7UH,63458,dcaldwell@sbcglobal.net
1SmX2wM3Na,OFUAPZYRMRP6,63458,dcaldwell@sbcglobal.net
1SmX2wM3Na,OF8QE3QNN04U,63458,dcaldwell@sbcglobal.net
1SmX2wM3Na,OFZ5R84E7O8A,63458,dcaldwell@sbcglobal.net
1SmX2wM3Na,OFJVS30D3LQ9,63458,dcaldwell@sbcglobal.net
1SmX2wM3Na,OFJVS30D3LQ9,63320,dbracchi@rocketmail.com
1SmX2wM3Na,OF8QE3QNN04U,63320,dbracchi@rocketmail.com
1SmX2wM3Na,OFZ5R84E7O8A,63320,dbracchi@rocketmail.com
1SmX2wM3Na,OFTBOIHICFCX,63320,dbracchi@rocketmail.com
1SmX2wM3Na,OF8P1D9MPO9V,63320,dbracchi@rocketmail.com
1SmX2wM3Na,OF0HSEPT6IRK,63320,dbracchi@rocketmail.com
1SmX2wM3Na,OFC17POFH6RR,63320,dbracchi@rocketmail.com
1SmX2wM3Na,OFELYDMXKULV,63320,dbracchi@rocketmail.com
1SmX2wM3Na,OFYX0XXGRFGK,63320,dbracchi@rocketmail.com
1SmX2wM3Na,OF7QDWN7LSB8,63320,dbracchi@rocketmail.com
1SmX2wM3Na,OFQ75TZUBL3F,63320,dbracchi@rocketmail.com
1SmX2wM3Na,OF1IJ6BSB9ZN,63320,dbracchi@rocketmail.com
1SmX2wM3Na,OF2OP4HJQ7UH,63320,dbracchi@rocketmail.com
1SmX2wM3Na,OFUAPZYRMRP6,63320,dbracchi@rocketmail.com
1SmX2wM3Na,OFJVS30D3LQ9,62662,davidkusin@kusin.com
1SmX2wM3Na,OF8QE3QNN04U,62662,davidkusin@kusin.com
1SmX2wM3Na,OFZ5R84E7O8A,62662,davidkusin@kusin.com
1SmX2wM3Na,OF0HSEPT6IRK,62662,davidkusin@kusin.com
1SmX2wM3Na,OFTBOIHICFCX,62662,davidkusin@kusin.com
1SmX2wM3Na,OF8P1D9MPO9V,62662,davidkusin@kusin.com
1SmX2wM3Na,OF7QDWN7LSB8,62662,davidkusin@kusin.com
1SmX2wM3Na,OFC17POFH6RR,62662,davidkusin@kusin.com
1SmX2wM3Na,OFELYDMXKULV,62662,davidkusin@kusin.com
1SmX2wM3Na,OFYX0XXGRFGK,62662,davidkusin@kusin.com
1SmX2wM3Na,OF2OP4HJQ7UH,62662,davidkusin@kusin.com
1SmX2wM3Na,OFUAPZYRMRP6,62662,davidkusin@kusin.com
1SmX2wM3Na,OF1IJ6BSB9ZN,62662,davidkusin@kusin.com
1SmX2wM3Na,OFQ75TZUBL3F,62662,davidkusin@kusin.com
1SmX2wM3Na,OFUAPZYRMRP6,62573,davidewiley@yahoo.com
1SmX2wM3Na,OFQ75TZUBL3F,62573,davidewiley@yahoo.com
1SmX2wM3Na,OF1IJ6BSB9ZN,62573,davidewiley@yahoo.com
1SmX2wM3Na,OF2OP4HJQ7UH,62573,davidewiley@yahoo.com
1SmX2wM3Na,OFJVS30D3LQ9,62573,davidewiley@yahoo.com
1SmX2wM3Na,OF8QE3QNN04U,62573,davidewiley@yahoo.com
1SmX2wM3Na,OFZ5R84E7O8A,62573,davidewiley@yahoo.com
1SmX2wM3Na,OFTBOIHICFCX,62573,davidewiley@yahoo.com
1SmX2wM3Na,OF8P1D9MPO9V,62573,davidewiley@yahoo.com
1SmX2wM3Na,OF0HSEPT6IRK,62573,davidewiley@yahoo.com
1SmX2wM3Na,OF7QDWN7LSB8,62573,davidewiley@yahoo.com
1SmX2wM3Na,OFC17POFH6RR,62573,davidewiley@yahoo.com
1SmX2wM3Na,OFELYDMXKULV,62573,davidewiley@yahoo.com
1SmX2wM3Na,OFYX0XXGRFGK,62573,davidewiley@yahoo.com
1SmX2wM3Na,OFJVS30D3LQ9,62000,david-house1@sbcglobal.net
1SmX2wM3Na,OF8QE3QNN04U,62000,david-house1@sbcglobal.net
1SmX2wM3Na,OFZ5R84E7O8A,62000,david-house1@sbcglobal.net
1SmX2wM3Na,OFTBOIHICFCX,62000,david-house1@sbcglobal.net
1SmX2wM3Na,OF8P1D9MPO9V,62000,david-house1@sbcglobal.net
1SmX2wM3Na,OF0HSEPT6IRK,62000,david-house1@sbcglobal.net
1SmX2wM3Na,OFC17POFH6RR,62000,david-house1@sbcglobal.net
1SmX2wM3Na,OFELYDMXKULV,62000,david-house1@sbcglobal.net
1SmX2wM3Na,OFYX0XXGRFGK,62000,david-house1@sbcglobal.net
1SmX2wM3Na,OF7QDWN7LSB8,62000,david-house1@sbcglobal.net
1SmX2wM3Na,OFQ75TZUBL3F,62000,david-house1@sbcglobal.net
1SmX2wM3Na,OF1IJ6BSB9ZN,62000,david-house1@sbcglobal.net
1SmX2wM3Na,OF2OP4HJQ7UH,62000,david-house1@sbcglobal.net
1SmX2wM3Na,OFUAPZYRMRP6,62000,david-house1@sbcglobal.net
1SmX2wM3Na,OFTBOIHICFCX,61784,dave2150@yahoo.com
1SmX2wM3Na,OF8P1D9MPO9V,61784,dave2150@yahoo.com
1SmX2wM3Na,OF0HSEPT6IRK,61784,dave2150@yahoo.com
1SmX2wM3Na,OFC17POFH6RR,61784,dave2150@yahoo.com
1SmX2wM3Na,OFELYDMXKULV,61784,dave2150@yahoo.com
1SmX2wM3Na,OFYX0XXGRFGK,61784,dave2150@yahoo.com
1SmX2wM3Na,OF7QDWN7LSB8,61784,dave2150@yahoo.com
1SmX2wM3Na,OFQ75TZUBL3F,61784,dave2150@yahoo.com
1SmX2wM3Na,OF1IJ6BSB9ZN,61784,dave2150@yahoo.com
1SmX2wM3Na,OF2OP4HJQ7UH,61784,dave2150@yahoo.com
1SmX2wM3Na,OFUAPZYRMRP6,61784,dave2150@yahoo.com
1SmX2wM3Na,OF8QE3QNN04U,61784,dave2150@yahoo.com
1SmX2wM3Na,OFZ5R84E7O8A,61784,dave2150@yahoo.com
1SmX2wM3Na,OFJVS30D3LQ9,61784,dave2150@yahoo.com
1SmX2wM3Na,OF8P1D9MPO9V,61138,dannyalford@gmail.com
1SmX2wM3Na,OF0HSEPT6IRK,61138,dannyalford@gmail.com
1SmX2wM3Na,OFTBOIHICFCX,61138,dannyalford@gmail.com
1SmX2wM3Na,OFYX0XXGRFGK,61138,dannyalford@gmail.com
1SmX2wM3Na,OF7QDWN7LSB8,61138,dannyalford@gmail.com
1SmX2wM3Na,OFC17POFH6RR,61138,dannyalford@gmail.com
1SmX2wM3Na,OFELYDMXKULV,61138,dannyalford@gmail.com
1SmX2wM3Na,OF2OP4HJQ7UH,61138,dannyalford@gmail.com
1SmX2wM3Na,OFUAPZYRMRP6,61138,dannyalford@gmail.com
1SmX2wM3Na,OFQ75TZUBL3F,61138,dannyalford@gmail.com
1SmX2wM3Na,OF1IJ6BSB9ZN,61138,dannyalford@gmail.com
1SmX2wM3Na,OFZ5R84E7O8A,61138,dannyalford@gmail.com
1SmX2wM3Na,OFJVS30D3LQ9,61138,dannyalford@gmail.com
1SmX2wM3Na,OF8QE3QNN04U,61138,dannyalford@gmail.com
1SmX2wM3Na,OFQ75TZUBL3F,58396,cstanford@dmnmedia.com
1SmX2wM3Na,OF1IJ6BSB9ZN,58396,cstanford@dmnmedia.com
1SmX2wM3Na,OF2OP4HJQ7UH,58396,cstanford@dmnmedia.com
1SmX2wM3Na,OFUAPZYRMRP6,58396,cstanford@dmnmedia.com
1SmX2wM3Na,OF8QE3QNN04U,58396,cstanford@dmnmedia.com
1SmX2wM3Na,OFZ5R84E7O8A,58396,cstanford@dmnmedia.com
1SmX2wM3Na,OFJVS30D3LQ9,58396,cstanford@dmnmedia.com
1SmX2wM3Na,OFTBOIHICFCX,58396,cstanford@dmnmedia.com
1SmX2wM3Na,OF8P1D9MPO9V,58396,cstanford@dmnmedia.com
1SmX2wM3Na,OF0HSEPT6IRK,58396,cstanford@dmnmedia.com
1SmX2wM3Na,OFC17POFH6RR,58396,cstanford@dmnmedia.com
1SmX2wM3Na,OFELYDMXKULV,58396,cstanford@dmnmedia.com
1SmX2wM3Na,OFYX0XXGRFGK,58396,cstanford@dmnmedia.com
1SmX2wM3Na,OF7QDWN7LSB8,58396,cstanford@dmnmedia.com
1SmX2wM3Na,OFUAPZYRMRP6,55695,cnjtheo@swbell.net
1SmX2wM3Na,OFQ75TZUBL3F,55695,cnjtheo@swbell.net
1SmX2wM3Na,OF1IJ6BSB9ZN,55695,cnjtheo@swbell.net
1SmX2wM3Na,OF2OP4HJQ7UH,55695,cnjtheo@swbell.net
1SmX2wM3Na,OFJVS30D3LQ9,55695,cnjtheo@swbell.net
1SmX2wM3Na,OF8QE3QNN04U,55695,cnjtheo@swbell.net
1SmX2wM3Na,OFZ5R84E7O8A,55695,cnjtheo@swbell.net
1SmX2wM3Na,OF0HSEPT6IRK,55695,cnjtheo@swbell.net
1SmX2wM3Na,OFTBOIHICFCX,55695,cnjtheo@swbell.net
1SmX2wM3Na,OF8P1D9MPO9V,55695,cnjtheo@swbell.net
1SmX2wM3Na,OF7QDWN7LSB8,55695,cnjtheo@swbell.net
1SmX2wM3Na,OFC17POFH6RR,55695,cnjtheo@swbell.net
1SmX2wM3Na,OFELYDMXKULV,55695,cnjtheo@swbell.net
1SmX2wM3Na,OFYX0XXGRFGK,55695,cnjtheo@swbell.net
1SmX2wM3Na,OF7QDWN7LSB8,55571,cmorton@dallasnews.com
1SmX2wM3Na,OFC17POFH6RR,55571,cmorton@dallasnews.com
1SmX2wM3Na,OFELYDMXKULV,55571,cmorton@dallasnews.com
1SmX2wM3Na,OFYX0XXGRFGK,55571,cmorton@dallasnews.com
1SmX2wM3Na,OFUAPZYRMRP6,55571,cmorton@dallasnews.com
1SmX2wM3Na,OFQ75TZUBL3F,55571,cmorton@dallasnews.com
1SmX2wM3Na,OF1IJ6BSB9ZN,55571,cmorton@dallasnews.com
1SmX2wM3Na,OF2OP4HJQ7UH,55571,cmorton@dallasnews.com
1SmX2wM3Na,OFJVS30D3LQ9,55571,cmorton@dallasnews.com
1SmX2wM3Na,OF8QE3QNN04U,55571,cmorton@dallasnews.com
1SmX2wM3Na,OFZ5R84E7O8A,55571,cmorton@dallasnews.com
1SmX2wM3Na,OFTBOIHICFCX,55571,cmorton@dallasnews.com
1SmX2wM3Na,OF8P1D9MPO9V,55571,cmorton@dallasnews.com
1SmX2wM3Na,OF0HSEPT6IRK,55571,cmorton@dallasnews.com
1SmX2wM3Na,OFJVS30D3LQ9,55484,cmikekim@kimint.com
1SmX2wM3Na,OF8QE3QNN04U,55484,cmikekim@kimint.com
1SmX2wM3Na,OFZ5R84E7O8A,55484,cmikekim@kimint.com
1SmX2wM3Na,OFTBOIHICFCX,55484,cmikekim@kimint.com
1SmX2wM3Na,OF8P1D9MPO9V,55484,cmikekim@kimint.com
1SmX2wM3Na,OF0HSEPT6IRK,55484,cmikekim@kimint.com
1SmX2wM3Na,OFC17POFH6RR,55484,cmikekim@kimint.com
1SmX2wM3Na,OFELYDMXKULV,55484,cmikekim@kimint.com
1SmX2wM3Na,OFYX0XXGRFGK,55484,cmikekim@kimint.com
1SmX2wM3Na,OF7QDWN7LSB8,55484,cmikekim@kimint.com
1SmX2wM3Na,OFUAPZYRMRP6,55484,cmikekim@kimint.com
1SmX2wM3Na,OFQ75TZUBL3F,55484,cmikekim@kimint.com
1SmX2wM3Na,OF1IJ6BSB9ZN,55484,cmikekim@kimint.com
1SmX2wM3Na,OF2OP4HJQ7UH,55484,cmikekim@kimint.com
1SmX2wM3Na,OFZ5R84E7O8A,53883,cindys@ccrd.com
1SmX2wM3Na,OFJVS30D3LQ9,53883,cindys@ccrd.com
1SmX2wM3Na,OF8QE3QNN04U,53883,cindys@ccrd.com
1SmX2wM3Na,OFTBOIHICFCX,53883,cindys@ccrd.com
1SmX2wM3Na,OF8P1D9MPO9V,53883,cindys@ccrd.com
1SmX2wM3Na,OF0HSEPT6IRK,53883,cindys@ccrd.com
1SmX2wM3Na,OFELYDMXKULV,53883,cindys@ccrd.com
1SmX2wM3Na,OFYX0XXGRFGK,53883,cindys@ccrd.com
1SmX2wM3Na,OF7QDWN7LSB8,53883,cindys@ccrd.com
1SmX2wM3Na,OFC17POFH6RR,53883,cindys@ccrd.com
1SmX2wM3Na,OF2OP4HJQ7UH,53883,cindys@ccrd.com
1SmX2wM3Na,OFUAPZYRMRP6,53883,cindys@ccrd.com
1SmX2wM3Na,OF1IJ6BSB9ZN,53883,cindys@ccrd.com
1SmX2wM3Na,OFQ75TZUBL3F,53883,cindys@ccrd.com
1SmX2wM3Na,OF2OP4HJQ7UH,53457,chuck.huckaby@gmfinancial.com
1SmX2wM3Na,OFUAPZYRMRP6,53457,chuck.huckaby@gmfinancial.com
1SmX2wM3Na,OF1IJ6BSB9ZN,53457,chuck.huckaby@gmfinancial.com
1SmX2wM3Na,OFQ75TZUBL3F,53457,chuck.huckaby@gmfinancial.com
1SmX2wM3Na,OFZ5R84E7O8A,53457,chuck.huckaby@gmfinancial.com
1SmX2wM3Na,OFJVS30D3LQ9,53457,chuck.huckaby@gmfinancial.com
1SmX2wM3Na,OF8QE3QNN04U,53457,chuck.huckaby@gmfinancial.com
1SmX2wM3Na,OF8P1D9MPO9V,53457,chuck.huckaby@gmfinancial.com
1SmX2wM3Na,OF0HSEPT6IRK,53457,chuck.huckaby@gmfinancial.com
1SmX2wM3Na,OFTBOIHICFCX,53457,chuck.huckaby@gmfinancial.com
1SmX2wM3Na,OFYX0XXGRFGK,53457,chuck.huckaby@gmfinancial.com
1SmX2wM3Na,OF7QDWN7LSB8,53457,chuck.huckaby@gmfinancial.com
1SmX2wM3Na,OFC17POFH6RR,53457,chuck.huckaby@gmfinancial.com
1SmX2wM3Na,OFELYDMXKULV,53457,chuck.huckaby@gmfinancial.com
1SmX2wM3Na,OF2OP4HJQ7UH,50641,cgann@smu.edu
1SmX2wM3Na,OFUAPZYRMRP6,50641,cgann@smu.edu
1SmX2wM3Na,OFQ75TZUBL3F,50641,cgann@smu.edu
1SmX2wM3Na,OF1IJ6BSB9ZN,50641,cgann@smu.edu
1SmX2wM3Na,OFJVS30D3LQ9,50641,cgann@smu.edu
1SmX2wM3Na,OF8QE3QNN04U,50641,cgann@smu.edu
1SmX2wM3Na,OFZ5R84E7O8A,50641,cgann@smu.edu
1SmX2wM3Na,OF8P1D9MPO9V,50641,cgann@smu.edu
1SmX2wM3Na,OF0HSEPT6IRK,50641,cgann@smu.edu
1SmX2wM3Na,OFTBOIHICFCX,50641,cgann@smu.edu
1SmX2wM3Na,OFYX0XXGRFGK,50641,cgann@smu.edu
1SmX2wM3Na,OF7QDWN7LSB8,50641,cgann@smu.edu
1SmX2wM3Na,OFC17POFH6RR,50641,cgann@smu.edu
1SmX2wM3Na,OFELYDMXKULV,50641,cgann@smu.edu
1SmX2wM3Na,OF7QDWN7LSB8,50253,cedtx@aol.com
1SmX2wM3Na,OFC17POFH6RR,50253,cedtx@aol.com
1SmX2wM3Na,OFELYDMXKULV,50253,cedtx@aol.com
1SmX2wM3Na,OFYX0XXGRFGK,50253,cedtx@aol.com
1SmX2wM3Na,OFUAPZYRMRP6,50253,cedtx@aol.com
1SmX2wM3Na,OFQ75TZUBL3F,50253,cedtx@aol.com
1SmX2wM3Na,OF1IJ6BSB9ZN,50253,cedtx@aol.com
1SmX2wM3Na,OF2OP4HJQ7UH,50253,cedtx@aol.com
1SmX2wM3Na,OFJVS30D3LQ9,50253,cedtx@aol.com
1SmX2wM3Na,OF8QE3QNN04U,50253,cedtx@aol.com
1SmX2wM3Na,OFZ5R84E7O8A,50253,cedtx@aol.com
1SmX2wM3Na,OF0HSEPT6IRK,50253,cedtx@aol.com
1SmX2wM3Na,OFTBOIHICFCX,50253,cedtx@aol.com
1SmX2wM3Na,OF8P1D9MPO9V,50253,cedtx@aol.com
1SmX2wM3Na,OF8P1D9MPO9V,50009,cdljones@att.net
1SmX2wM3Na,OF0HSEPT6IRK,50009,cdljones@att.net
1SmX2wM3Na,OFTBOIHICFCX,50009,cdljones@att.net
1SmX2wM3Na,OFYX0XXGRFGK,50009,cdljones@att.net
1SmX2wM3Na,OF7QDWN7LSB8,50009,cdljones@att.net
1SmX2wM3Na,OFC17POFH6RR,50009,cdljones@att.net
1SmX2wM3Na,OFELYDMXKULV,50009,cdljones@att.net
1SmX2wM3Na,OF1IJ6BSB9ZN,50009,cdljones@att.net
1SmX2wM3Na,OF2OP4HJQ7UH,50009,cdljones@att.net
1SmX2wM3Na,OFUAPZYRMRP6,50009,cdljones@att.net
1SmX2wM3Na,OFQ75TZUBL3F,50009,cdljones@att.net
1SmX2wM3Na,OFZ5R84E7O8A,50009,cdljones@att.net
1SmX2wM3Na,OFJVS30D3LQ9,50009,cdljones@att.net
1SmX2wM3Na,OF8QE3QNN04U,50009,cdljones@att.net
1SmX2wM3Na,OFJVS30D3LQ9,47973,carlyl@att.net
1SmX2wM3Na,OF8QE3QNN04U,47973,carlyl@att.net
1SmX2wM3Na,OFZ5R84E7O8A,47973,carlyl@att.net
1SmX2wM3Na,OF0HSEPT6IRK,47973,carlyl@att.net
1SmX2wM3Na,OFTBOIHICFCX,47973,carlyl@att.net
1SmX2wM3Na,OF8P1D9MPO9V,47973,carlyl@att.net
1SmX2wM3Na,OF7QDWN7LSB8,47973,carlyl@att.net
1SmX2wM3Na,OFC17POFH6RR,47973,carlyl@att.net
1SmX2wM3Na,OFELYDMXKULV,47973,carlyl@att.net
1SmX2wM3Na,OFYX0XXGRFGK,47973,carlyl@att.net
1SmX2wM3Na,OFUAPZYRMRP6,47973,carlyl@att.net
1SmX2wM3Na,OFQ75TZUBL3F,47973,carlyl@att.net
1SmX2wM3Na,OF1IJ6BSB9ZN,47973,carlyl@att.net
1SmX2wM3Na,OF2OP4HJQ7UH,47973,carlyl@att.net
1SmX2wM3Na,OFJVS30D3LQ9,44260,brian-bea@hotmail.com
1SmX2wM3Na,OF8QE3QNN04U,44260,brian-bea@hotmail.com
1SmX2wM3Na,OFZ5R84E7O8A,44260,brian-bea@hotmail.com
1SmX2wM3Na,OF0HSEPT6IRK,44260,brian-bea@hotmail.com
1SmX2wM3Na,OFTBOIHICFCX,44260,brian-bea@hotmail.com
1SmX2wM3Na,OF8P1D9MPO9V,44260,brian-bea@hotmail.com
1SmX2wM3Na,OF7QDWN7LSB8,44260,brian-bea@hotmail.com
1SmX2wM3Na,OFC17POFH6RR,44260,brian-bea@hotmail.com
1SmX2wM3Na,OFELYDMXKULV,44260,brian-bea@hotmail.com
1SmX2wM3Na,OFYX0XXGRFGK,44260,brian-bea@hotmail.com
1SmX2wM3Na,OF2OP4HJQ7UH,44260,brian-bea@hotmail.com
1SmX2wM3Na,OFUAPZYRMRP6,44260,brian-bea@hotmail.com
1SmX2wM3Na,OFQ75TZUBL3F,44260,brian-bea@hotmail.com
1SmX2wM3Na,OF1IJ6BSB9ZN,44260,brian-bea@hotmail.com
1SmX2wM3Na,OFYX0XXGRFGK,43180,bpeele@dallasnews.com
1SmX2wM3Na,OF7QDWN7LSB8,43180,bpeele@dallasnews.com
1SmX2wM3Na,OFC17POFH6RR,43180,bpeele@dallasnews.com
1SmX2wM3Na,OFELYDMXKULV,43180,bpeele@dallasnews.com
1SmX2wM3Na,OF2OP4HJQ7UH,43180,bpeele@dallasnews.com
1SmX2wM3Na,OFUAPZYRMRP6,43180,bpeele@dallasnews.com
1SmX2wM3Na,OF1IJ6BSB9ZN,43180,bpeele@dallasnews.com
1SmX2wM3Na,OFQ75TZUBL3F,43180,bpeele@dallasnews.com
1SmX2wM3Na,OFZ5R84E7O8A,43180,bpeele@dallasnews.com
1SmX2wM3Na,OFJVS30D3LQ9,43180,bpeele@dallasnews.com
1SmX2wM3Na,OF8QE3QNN04U,43180,bpeele@dallasnews.com
1SmX2wM3Na,OF8P1D9MPO9V,43180,bpeele@dallasnews.com
1SmX2wM3Na,OF0HSEPT6IRK,43180,bpeele@dallasnews.com
1SmX2wM3Na,OFTBOIHICFCX,43180,bpeele@dallasnews.com
1SmX2wM3Na,OF8P1D9MPO9V,427548,danlongtest@dallasnews.com
1SmX2wM3Na,OF0HSEPT6IRK,427548,danlongtest@dallasnews.com
1SmX2wM3Na,OFTBOIHICFCX,427548,danlongtest@dallasnews.com
1SmX2wM3Na,OFYX0XXGRFGK,427548,danlongtest@dallasnews.com
1SmX2wM3Na,OF7QDWN7LSB8,427548,danlongtest@dallasnews.com
1SmX2wM3Na,OFC17POFH6RR,427548,danlongtest@dallasnews.com
1SmX2wM3Na,OFELYDMXKULV,427548,danlongtest@dallasnews.com
1SmX2wM3Na,OF2OP4HJQ7UH,427548,danlongtest@dallasnews.com
1SmX2wM3Na,OFUAPZYRMRP6,427548,danlongtest@dallasnews.com
1SmX2wM3Na,OF1IJ6BSB9ZN,427548,danlongtest@dallasnews.com
1SmX2wM3Na,OFQ75TZUBL3F,427548,danlongtest@dallasnews.com
1SmX2wM3Na,OFZ5R84E7O8A,427548,danlongtest@dallasnews.com
1SmX2wM3Na,OFJVS30D3LQ9,427548,danlongtest@dallasnews.com
1SmX2wM3Na,OF8QE3QNN04U,427548,danlongtest@dallasnews.com
1SmX2wM3Na,OFQ75TZUBL3F,405500,mdisen@dmnmedia.com
1SmX2wM3Na,OF1IJ6BSB9ZN,405500,mdisen@dmnmedia.com
1SmX2wM3Na,OF2OP4HJQ7UH,405500,mdisen@dmnmedia.com
1SmX2wM3Na,OFUAPZYRMRP6,405500,mdisen@dmnmedia.com
1SmX2wM3Na,OF8QE3QNN04U,405500,mdisen@dmnmedia.com
1SmX2wM3Na,OFZ5R84E7O8A,405500,mdisen@dmnmedia.com
1SmX2wM3Na,OFJVS30D3LQ9,405500,mdisen@dmnmedia.com
1SmX2wM3Na,OFTBOIHICFCX,405500,mdisen@dmnmedia.com
1SmX2wM3Na,OF8P1D9MPO9V,405500,mdisen@dmnmedia.com
1SmX2wM3Na,OF0HSEPT6IRK,405500,mdisen@dmnmedia.com
1SmX2wM3Na,OFELYDMXKULV,405500,mdisen@dmnmedia.com
1SmX2wM3Na,OFYX0XXGRFGK,405500,mdisen@dmnmedia.com
1SmX2wM3Na,OF7QDWN7LSB8,405500,mdisen@dmnmedia.com
1SmX2wM3Na,OFC17POFH6RR,405500,mdisen@dmnmedia.com
1SmX2wM3Na,OF7QDWN7LSB8,403378,dscher1@gmail.com
1SmX2wM3Na,OFC17POFH6RR,403378,dscher1@gmail.com
1SmX2wM3Na,OFELYDMXKULV,403378,dscher1@gmail.com
1SmX2wM3Na,OFYX0XXGRFGK,403378,dscher1@gmail.com
1SmX2wM3Na,OFUAPZYRMRP6,403378,dscher1@gmail.com
1SmX2wM3Na,OFQ75TZUBL3F,403378,dscher1@gmail.com
1SmX2wM3Na,OF1IJ6BSB9ZN,403378,dscher1@gmail.com
1SmX2wM3Na,OF2OP4HJQ7UH,403378,dscher1@gmail.com
1SmX2wM3Na,OFJVS30D3LQ9,403378,dscher1@gmail.com
1SmX2wM3Na,OF8QE3QNN04U,403378,dscher1@gmail.com
1SmX2wM3Na,OFZ5R84E7O8A,403378,dscher1@gmail.com
1SmX2wM3Na,OF0HSEPT6IRK,403378,dscher1@gmail.com
1SmX2wM3Na,OFTBOIHICFCX,403378,dscher1@gmail.com
1SmX2wM3Na,OF8P1D9MPO9V,403378,dscher1@gmail.com
1SmX2wM3Na,OFYX0XXGRFGK,40220,billgrayson49@hotmail.com
1SmX2wM3Na,OF7QDWN7LSB8,40220,billgrayson49@hotmail.com
1SmX2wM3Na,OFC17POFH6RR,40220,billgrayson49@hotmail.com
1SmX2wM3Na,OFELYDMXKULV,40220,billgrayson49@hotmail.com
1SmX2wM3Na,OF2OP4HJQ7UH,40220,billgrayson49@hotmail.com
1SmX2wM3Na,OFUAPZYRMRP6,40220,billgrayson49@hotmail.com
1SmX2wM3Na,OF1IJ6BSB9ZN,40220,billgrayson49@hotmail.com
1SmX2wM3Na,OFQ75TZUBL3F,40220,billgrayson49@hotmail.com
1SmX2wM3Na,OFJVS30D3LQ9,40220,billgrayson49@hotmail.com
1SmX2wM3Na,OF8QE3QNN04U,40220,billgrayson49@hotmail.com
1SmX2wM3Na,OFZ5R84E7O8A,40220,billgrayson49@hotmail.com
1SmX2wM3Na,OF0HSEPT6IRK,40220,billgrayson49@hotmail.com
1SmX2wM3Na,OFTBOIHICFCX,40220,billgrayson49@hotmail.com
1SmX2wM3Na,OF8P1D9MPO9V,40220,billgrayson49@hotmail.com
1SmX2wM3Na,OFTBOIHICFCX,402031,djansen@dallasnews.com
1SmX2wM3Na,OF8P1D9MPO9V,402031,djansen@dallasnews.com
1SmX2wM3Na,OF0HSEPT6IRK,402031,djansen@dallasnews.com
1SmX2wM3Na,OFC17POFH6RR,402031,djansen@dallasnews.com
1SmX2wM3Na,OFELYDMXKULV,402031,djansen@dallasnews.com
1SmX2wM3Na,OFYX0XXGRFGK,402031,djansen@dallasnews.com
1SmX2wM3Na,OF7QDWN7LSB8,402031,djansen@dallasnews.com
1SmX2wM3Na,OFQ75TZUBL3F,402031,djansen@dallasnews.com
1SmX2wM3Na,OF1IJ6BSB9ZN,402031,djansen@dallasnews.com
1SmX2wM3Na,OF2OP4HJQ7UH,402031,djansen@dallasnews.com
1SmX2wM3Na,OFUAPZYRMRP6,402031,djansen@dallasnews.com
1SmX2wM3Na,OF8QE3QNN04U,402031,djansen@dallasnews.com
1SmX2wM3Na,OFZ5R84E7O8A,402031,djansen@dallasnews.com
1SmX2wM3Na,OFJVS30D3LQ9,402031,djansen@dallasnews.com
1SmX2wM3Na,OFTBOIHICFCX,400896,eevans@dallasnews.com
1SmX2wM3Na,OF8P1D9MPO9V,400896,eevans@dallasnews.com
1SmX2wM3Na,OF0HSEPT6IRK,400896,eevans@dallasnews.com
1SmX2wM3Na,OFC17POFH6RR,400896,eevans@dallasnews.com
1SmX2wM3Na,OFELYDMXKULV,400896,eevans@dallasnews.com
1SmX2wM3Na,OFYX0XXGRFGK,400896,eevans@dallasnews.com
1SmX2wM3Na,OF7QDWN7LSB8,400896,eevans@dallasnews.com
1SmX2wM3Na,OFQ75TZUBL3F,400896,eevans@dallasnews.com
1SmX2wM3Na,OF1IJ6BSB9ZN,400896,eevans@dallasnews.com
1SmX2wM3Na,OF2OP4HJQ7UH,400896,eevans@dallasnews.com
1SmX2wM3Na,OFUAPZYRMRP6,400896,eevans@dallasnews.com
1SmX2wM3Na,OF8QE3QNN04U,400896,eevans@dallasnews.com
1SmX2wM3Na,OFZ5R84E7O8A,400896,eevans@dallasnews.com
1SmX2wM3Na,OFJVS30D3LQ9,400896,eevans@dallasnews.com
1SmX2wM3Na,OFUAPZYRMRP6,400224,bigken9@gmail.com
1SmX2wM3Na,OFQ75TZUBL3F,400224,bigken9@gmail.com
1SmX2wM3Na,OF1IJ6BSB9ZN,400224,bigken9@gmail.com
1SmX2wM3Na,OF2OP4HJQ7UH,400224,bigken9@gmail.com
1SmX2wM3Na,OFJVS30D3LQ9,400224,bigken9@gmail.com
1SmX2wM3Na,OF8QE3QNN04U,400224,bigken9@gmail.com
1SmX2wM3Na,OFZ5R84E7O8A,400224,bigken9@gmail.com
1SmX2wM3Na,OF0HSEPT6IRK,400224,bigken9@gmail.com
1SmX2wM3Na,OFTBOIHICFCX,400224,bigken9@gmail.com
1SmX2wM3Na,OF8P1D9MPO9V,400224,bigken9@gmail.com
1SmX2wM3Na,OF7QDWN7LSB8,400224,bigken9@gmail.com
1SmX2wM3Na,OFC17POFH6RR,400224,bigken9@gmail.com
1SmX2wM3Na,OFELYDMXKULV,400224,bigken9@gmail.com
1SmX2wM3Na,OFYX0XXGRFGK,400224,bigken9@gmail.com
1SmX2wM3Na,OFZ5R84E7O8A,398512,PPtest@dallasnews.com
1SmX2wM3Na,OFJVS30D3LQ9,398512,PPtest@dallasnews.com
1SmX2wM3Na,OF8QE3QNN04U,398512,PPtest@dallasnews.com
1SmX2wM3Na,OF8P1D9MPO9V,398512,PPtest@dallasnews.com
1SmX2wM3Na,OF0HSEPT6IRK,398512,PPtest@dallasnews.com
1SmX2wM3Na,OFTBOIHICFCX,398512,PPtest@dallasnews.com
1SmX2wM3Na,OFYX0XXGRFGK,398512,PPtest@dallasnews.com
1SmX2wM3Na,OF7QDWN7LSB8,398512,PPtest@dallasnews.com
1SmX2wM3Na,OFC17POFH6RR,398512,PPtest@dallasnews.com
1SmX2wM3Na,OFELYDMXKULV,398512,PPtest@dallasnews.com
1SmX2wM3Na,OF2OP4HJQ7UH,398512,PPtest@dallasnews.com
1SmX2wM3Na,OFUAPZYRMRP6,398512,PPtest@dallasnews.com
1SmX2wM3Na,OF1IJ6BSB9ZN,398512,PPtest@dallasnews.com
1SmX2wM3Na,OFQ75TZUBL3F,398512,PPtest@dallasnews.com
1SmX2wM3Na,OFYX0XXGRFGK,398511,ppkwvip@dallasnews.com
1SmX2wM3Na,OF7QDWN7LSB8,398511,ppkwvip@dallasnews.com
1SmX2wM3Na,OFC17POFH6RR,398511,ppkwvip@dallasnews.com
1SmX2wM3Na,OFELYDMXKULV,398511,ppkwvip@dallasnews.com
1SmX2wM3Na,OF2OP4HJQ7UH,398511,ppkwvip@dallasnews.com
1SmX2wM3Na,OFUAPZYRMRP6,398511,ppkwvip@dallasnews.com
1SmX2wM3Na,OF1IJ6BSB9ZN,398511,ppkwvip@dallasnews.com
1SmX2wM3Na,OFQ75TZUBL3F,398511,ppkwvip@dallasnews.com
1SmX2wM3Na,OFZ5R84E7O8A,398511,ppkwvip@dallasnews.com
1SmX2wM3Na,OFJVS30D3LQ9,398511,ppkwvip@dallasnews.com
1SmX2wM3Na,OF8QE3QNN04U,398511,ppkwvip@dallasnews.com
1SmX2wM3Na,OF8P1D9MPO9V,398511,ppkwvip@dallasnews.com
1SmX2wM3Na,OF0HSEPT6IRK,398511,ppkwvip@dallasnews.com
1SmX2wM3Na,OFTBOIHICFCX,398511,ppkwvip@dallasnews.com
1SmX2wM3Na,OFJVS30D3LQ9,397335,dlongTEST@dallasnews.com
1SmX2wM3Na,OF8QE3QNN04U,397335,dlongTEST@dallasnews.com
1SmX2wM3Na,OFZ5R84E7O8A,397335,dlongTEST@dallasnews.com
1SmX2wM3Na,OF0HSEPT6IRK,397335,dlongTEST@dallasnews.com
1SmX2wM3Na,OFTBOIHICFCX,397335,dlongTEST@dallasnews.com
1SmX2wM3Na,OF8P1D9MPO9V,397335,dlongTEST@dallasnews.com
1SmX2wM3Na,OF7QDWN7LSB8,397335,dlongTEST@dallasnews.com
1SmX2wM3Na,OFC17POFH6RR,397335,dlongTEST@dallasnews.com
1SmX2wM3Na,OFELYDMXKULV,397335,dlongTEST@dallasnews.com
1SmX2wM3Na,OFYX0XXGRFGK,397335,dlongTEST@dallasnews.com
1SmX2wM3Na,OFUAPZYRMRP6,397335,dlongTEST@dallasnews.com
1SmX2wM3Na,OFQ75TZUBL3F,397335,dlongTEST@dallasnews.com
1SmX2wM3Na,OF1IJ6BSB9ZN,397335,dlongTEST@dallasnews.com
1SmX2wM3Na,OF2OP4HJQ7UH,397335,dlongTEST@dallasnews.com
1SmX2wM3Na,OF0HSEPT6IRK,397328,dscher50@gmail.com
1SmX2wM3Na,OFTBOIHICFCX,397328,dscher50@gmail.com
1SmX2wM3Na,OF8P1D9MPO9V,397328,dscher50@gmail.com
1SmX2wM3Na,OF7QDWN7LSB8,397328,dscher50@gmail.com
1SmX2wM3Na,OFC17POFH6RR,397328,dscher50@gmail.com
1SmX2wM3Na,OFELYDMXKULV,397328,dscher50@gmail.com
1SmX2wM3Na,OFYX0XXGRFGK,397328,dscher50@gmail.com
1SmX2wM3Na,OFUAPZYRMRP6,397328,dscher50@gmail.com
1SmX2wM3Na,OFQ75TZUBL3F,397328,dscher50@gmail.com
1SmX2wM3Na,OF1IJ6BSB9ZN,397328,dscher50@gmail.com
1SmX2wM3Na,OF2OP4HJQ7UH,397328,dscher50@gmail.com
1SmX2wM3Na,OFJVS30D3LQ9,397328,dscher50@gmail.com
1SmX2wM3Na,OF8QE3QNN04U,397328,dscher50@gmail.com
1SmX2wM3Na,OFZ5R84E7O8A,397328,dscher50@gmail.com
1SmX2wM3Na,OF7QDWN7LSB8,397323,rhymingelf@mailinator.com
1SmX2wM3Na,OFC17POFH6RR,397323,rhymingelf@mailinator.com
1SmX2wM3Na,OFELYDMXKULV,397323,rhymingelf@mailinator.com
1SmX2wM3Na,OFYX0XXGRFGK,397323,rhymingelf@mailinator.com
1SmX2wM3Na,OFUAPZYRMRP6,397323,rhymingelf@mailinator.com
1SmX2wM3Na,OFQ75TZUBL3F,397323,rhymingelf@mailinator.com
1SmX2wM3Na,OF1IJ6BSB9ZN,397323,rhymingelf@mailinator.com
1SmX2wM3Na,OF2OP4HJQ7UH,397323,rhymingelf@mailinator.com
1SmX2wM3Na,OFJVS30D3LQ9,397323,rhymingelf@mailinator.com
1SmX2wM3Na,OF8QE3QNN04U,397323,rhymingelf@mailinator.com
1SmX2wM3Na,OFZ5R84E7O8A,397323,rhymingelf@mailinator.com
1SmX2wM3Na,OF0HSEPT6IRK,397323,rhymingelf@mailinator.com
1SmX2wM3Na,OFTBOIHICFCX,397323,rhymingelf@mailinator.com
1SmX2wM3Na,OF8P1D9MPO9V,397323,rhymingelf@mailinator.com
1SmX2wM3Na,OFJVS30D3LQ9,397322,dscher43@gmail.com
1SmX2wM3Na,OF8QE3QNN04U,397322,dscher43@gmail.com
1SmX2wM3Na,OFZ5R84E7O8A,397322,dscher43@gmail.com
1SmX2wM3Na,OF0HSEPT6IRK,397322,dscher43@gmail.com
1SmX2wM3Na,OFTBOIHICFCX,397322,dscher43@gmail.com
1SmX2wM3Na,OF8P1D9MPO9V,397322,dscher43@gmail.com
1SmX2wM3Na,OF7QDWN7LSB8,397322,dscher43@gmail.com
1SmX2wM3Na,OFC17POFH6RR,397322,dscher43@gmail.com
1SmX2wM3Na,OFELYDMXKULV,397322,dscher43@gmail.com
1SmX2wM3Na,OFYX0XXGRFGK,397322,dscher43@gmail.com
1SmX2wM3Na,OFUAPZYRMRP6,397322,dscher43@gmail.com
1SmX2wM3Na,OFQ75TZUBL3F,397322,dscher43@gmail.com
1SmX2wM3Na,OF1IJ6BSB9ZN,397322,dscher43@gmail.com
1SmX2wM3Na,OF2OP4HJQ7UH,397322,dscher43@gmail.com
1SmX2wM3Na,OF7QDWN7LSB8,397321,dscher39@gmail.com
1SmX2wM3Na,OFC17POFH6RR,397321,dscher39@gmail.com
1SmX2wM3Na,OFELYDMXKULV,397321,dscher39@gmail.com
1SmX2wM3Na,OFYX0XXGRFGK,397321,dscher39@gmail.com
1SmX2wM3Na,OFUAPZYRMRP6,397321,dscher39@gmail.com
1SmX2wM3Na,OFQ75TZUBL3F,397321,dscher39@gmail.com
1SmX2wM3Na,OF1IJ6BSB9ZN,397321,dscher39@gmail.com
1SmX2wM3Na,OF2OP4HJQ7UH,397321,dscher39@gmail.com
1SmX2wM3Na,OFJVS30D3LQ9,397321,dscher39@gmail.com
1SmX2wM3Na,OF8QE3QNN04U,397321,dscher39@gmail.com
1SmX2wM3Na,OFZ5R84E7O8A,397321,dscher39@gmail.com
1SmX2wM3Na,OF0HSEPT6IRK,397321,dscher39@gmail.com
1SmX2wM3Na,OFTBOIHICFCX,397321,dscher39@gmail.com
1SmX2wM3Na,OF8P1D9MPO9V,397321,dscher39@gmail.com
1SmX2wM3Na,OF0HSEPT6IRK,397320,dscher38@gmail.com
1SmX2wM3Na,OFTBOIHICFCX,397320,dscher38@gmail.com
1SmX2wM3Na,OF8P1D9MPO9V,397320,dscher38@gmail.com
1SmX2wM3Na,OF7QDWN7LSB8,397320,dscher38@gmail.com
1SmX2wM3Na,OFC17POFH6RR,397320,dscher38@gmail.com
1SmX2wM3Na,OFELYDMXKULV,397320,dscher38@gmail.com
1SmX2wM3Na,OFYX0XXGRFGK,397320,dscher38@gmail.com
1SmX2wM3Na,OFUAPZYRMRP6,397320,dscher38@gmail.com
1SmX2wM3Na,OFQ75TZUBL3F,397320,dscher38@gmail.com
1SmX2wM3Na,OF1IJ6BSB9ZN,397320,dscher38@gmail.com
1SmX2wM3Na,OF2OP4HJQ7UH,397320,dscher38@gmail.com
1SmX2wM3Na,OFJVS30D3LQ9,397320,dscher38@gmail.com
1SmX2wM3Na,OF8QE3QNN04U,397320,dscher38@gmail.com
1SmX2wM3Na,OFZ5R84E7O8A,397320,dscher38@gmail.com
1SmX2wM3Na,OFJVS30D3LQ9,397319,dscher34@gmail.com
1SmX2wM3Na,OF8QE3QNN04U,397319,dscher34@gmail.com
1SmX2wM3Na,OFZ5R84E7O8A,397319,dscher34@gmail.com
1SmX2wM3Na,OF0HSEPT6IRK,397319,dscher34@gmail.com
1SmX2wM3Na,OFTBOIHICFCX,397319,dscher34@gmail.com
1SmX2wM3Na,OF8P1D9MPO9V,397319,dscher34@gmail.com
1SmX2wM3Na,OF7QDWN7LSB8,397319,dscher34@gmail.com
1SmX2wM3Na,OFC17POFH6RR,397319,dscher34@gmail.com
1SmX2wM3Na,OFELYDMXKULV,397319,dscher34@gmail.com
1SmX2wM3Na,OFYX0XXGRFGK,397319,dscher34@gmail.com
1SmX2wM3Na,OFUAPZYRMRP6,397319,dscher34@gmail.com
1SmX2wM3Na,OFQ75TZUBL3F,397319,dscher34@gmail.com
1SmX2wM3Na,OF1IJ6BSB9ZN,397319,dscher34@gmail.com
1SmX2wM3Na,OF2OP4HJQ7UH,397319,dscher34@gmail.com
1SmX2wM3Na,OF7QDWN7LSB8,397318,dscher31@gmail.com
1SmX2wM3Na,OFC17POFH6RR,397318,dscher31@gmail.com
1SmX2wM3Na,OFELYDMXKULV,397318,dscher31@gmail.com
1SmX2wM3Na,OFYX0XXGRFGK,397318,dscher31@gmail.com
1SmX2wM3Na,OFUAPZYRMRP6,397318,dscher31@gmail.com
1SmX2wM3Na,OFQ75TZUBL3F,397318,dscher31@gmail.com
1SmX2wM3Na,OF1IJ6BSB9ZN,397318,dscher31@gmail.com
1SmX2wM3Na,OF2OP4HJQ7UH,397318,dscher31@gmail.com
1SmX2wM3Na,OFJVS30D3LQ9,397318,dscher31@gmail.com
1SmX2wM3Na,OF8QE3QNN04U,397318,dscher31@gmail.com
1SmX2wM3Na,OFZ5R84E7O8A,397318,dscher31@gmail.com
1SmX2wM3Na,OF0HSEPT6IRK,397318,dscher31@gmail.com
1SmX2wM3Na,OFTBOIHICFCX,397318,dscher31@gmail.com
1SmX2wM3Na,OF8P1D9MPO9V,397318,dscher31@gmail.com
1SmX2wM3Na,OF0HSEPT6IRK,397315,dscher20@gmail.co
1SmX2wM3Na,OFTBOIHICFCX,397315,dscher20@gmail.co
1SmX2wM3Na,OF8P1D9MPO9V,397315,dscher20@gmail.co
1SmX2wM3Na,OF7QDWN7LSB8,397315,dscher20@gmail.co
1SmX2wM3Na,OFC17POFH6RR,397315,dscher20@gmail.co
1SmX2wM3Na,OFELYDMXKULV,397315,dscher20@gmail.co
1SmX2wM3Na,OFYX0XXGRFGK,397315,dscher20@gmail.co
1SmX2wM3Na,OFUAPZYRMRP6,397315,dscher20@gmail.co
1SmX2wM3Na,OFQ75TZUBL3F,397315,dscher20@gmail.co
1SmX2wM3Na,OF1IJ6BSB9ZN,397315,dscher20@gmail.co
1SmX2wM3Na,OF2OP4HJQ7UH,397315,dscher20@gmail.co
1SmX2wM3Na,OFJVS30D3LQ9,397315,dscher20@gmail.co
1SmX2wM3Na,OF8QE3QNN04U,397315,dscher20@gmail.co
1SmX2wM3Na,OFZ5R84E7O8A,397315,dscher20@gmail.co
1SmX2wM3Na,OFJVS30D3LQ9,397314,dscher19@gmail.com
1SmX2wM3Na,OF8QE3QNN04U,397314,dscher19@gmail.com
1SmX2wM3Na,OFZ5R84E7O8A,397314,dscher19@gmail.com
1SmX2wM3Na,OF0HSEPT6IRK,397314,dscher19@gmail.com
1SmX2wM3Na,OFTBOIHICFCX,397314,dscher19@gmail.com
1SmX2wM3Na,OF8P1D9MPO9V,397314,dscher19@gmail.com
1SmX2wM3Na,OF7QDWN7LSB8,397314,dscher19@gmail.com
1SmX2wM3Na,OFC17POFH6RR,397314,dscher19@gmail.com
1SmX2wM3Na,OFELYDMXKULV,397314,dscher19@gmail.com
1SmX2wM3Na,OFYX0XXGRFGK,397314,dscher19@gmail.com
1SmX2wM3Na,OFUAPZYRMRP6,397314,dscher19@gmail.com
1SmX2wM3Na,OFQ75TZUBL3F,397314,dscher19@gmail.com
1SmX2wM3Na,OF1IJ6BSB9ZN,397314,dscher19@gmail.com
1SmX2wM3Na,OF2OP4HJQ7UH,397314,dscher19@gmail.com
1SmX2wM3Na,OF7QDWN7LSB8,397313,dscher17@gmail.co
1SmX2wM3Na,OFC17POFH6RR,397313,dscher17@gmail.co
1SmX2wM3Na,OFELYDMXKULV,397313,dscher17@gmail.co
1SmX2wM3Na,OFYX0XXGRFGK,397313,dscher17@gmail.co
1SmX2wM3Na,OFUAPZYRMRP6,397313,dscher17@gmail.co
1SmX2wM3Na,OFQ75TZUBL3F,397313,dscher17@gmail.co
1SmX2wM3Na,OF1IJ6BSB9ZN,397313,dscher17@gmail.co
1SmX2wM3Na,OF2OP4HJQ7UH,397313,dscher17@gmail.co
1SmX2wM3Na,OFJVS30D3LQ9,397313,dscher17@gmail.co
1SmX2wM3Na,OF8QE3QNN04U,397313,dscher17@gmail.co
1SmX2wM3Na,OFZ5R84E7O8A,397313,dscher17@gmail.co
1SmX2wM3Na,OF0HSEPT6IRK,397313,dscher17@gmail.co
1SmX2wM3Na,OFTBOIHICFCX,397313,dscher17@gmail.co
1SmX2wM3Na,OF8P1D9MPO9V,397313,dscher17@gmail.co
1SmX2wM3Na,OFJVS30D3LQ9,397312,dscher15@gmail.com
1SmX2wM3Na,OF8QE3QNN04U,397312,dscher15@gmail.com
1SmX2wM3Na,OFZ5R84E7O8A,397312,dscher15@gmail.com
1SmX2wM3Na,OF0HSEPT6IRK,397312,dscher15@gmail.com
1SmX2wM3Na,OFTBOIHICFCX,397312,dscher15@gmail.com
1SmX2wM3Na,OF8P1D9MPO9V,397312,dscher15@gmail.com
1SmX2wM3Na,OF7QDWN7LSB8,397312,dscher15@gmail.com
1SmX2wM3Na,OFC17POFH6RR,397312,dscher15@gmail.com
1SmX2wM3Na,OFELYDMXKULV,397312,dscher15@gmail.com
1SmX2wM3Na,OFYX0XXGRFGK,397312,dscher15@gmail.com
1SmX2wM3Na,OFUAPZYRMRP6,397312,dscher15@gmail.com
1SmX2wM3Na,OFQ75TZUBL3F,397312,dscher15@gmail.com
1SmX2wM3Na,OF1IJ6BSB9ZN,397312,dscher15@gmail.com
1SmX2wM3Na,OF2OP4HJQ7UH,397312,dscher15@gmail.com
1SmX2wM3Na,OF7QDWN7LSB8,397311,dscher13@gmail.com
1SmX2wM3Na,OFC17POFH6RR,397311,dscher13@gmail.com
1SmX2wM3Na,OFELYDMXKULV,397311,dscher13@gmail.com
1SmX2wM3Na,OFYX0XXGRFGK,397311,dscher13@gmail.com
1SmX2wM3Na,OFUAPZYRMRP6,397311,dscher13@gmail.com
1SmX2wM3Na,OFQ75TZUBL3F,397311,dscher13@gmail.com
1SmX2wM3Na,OF1IJ6BSB9ZN,397311,dscher13@gmail.com
1SmX2wM3Na,OF2OP4HJQ7UH,397311,dscher13@gmail.com
1SmX2wM3Na,OFJVS30D3LQ9,397311,dscher13@gmail.com
1SmX2wM3Na,OF8QE3QNN04U,397311,dscher13@gmail.com
1SmX2wM3Na,OFZ5R84E7O8A,397311,dscher13@gmail.com
1SmX2wM3Na,OF0HSEPT6IRK,397311,dscher13@gmail.com
1SmX2wM3Na,OFTBOIHICFCX,397311,dscher13@gmail.com
1SmX2wM3Na,OF8P1D9MPO9V,397311,dscher13@gmail.com
1SmX2wM3Na,OF0HSEPT6IRK,397310,dscher12@gmail.com
1SmX2wM3Na,OFTBOIHICFCX,397310,dscher12@gmail.com
1SmX2wM3Na,OF8P1D9MPO9V,397310,dscher12@gmail.com
1SmX2wM3Na,OF7QDWN7LSB8,397310,dscher12@gmail.com
1SmX2wM3Na,OFC17POFH6RR,397310,dscher12@gmail.com
1SmX2wM3Na,OFELYDMXKULV,397310,dscher12@gmail.com
1SmX2wM3Na,OFYX0XXGRFGK,397310,dscher12@gmail.com
1SmX2wM3Na,OFUAPZYRMRP6,397310,dscher12@gmail.com
1SmX2wM3Na,OFQ75TZUBL3F,397310,dscher12@gmail.com
1SmX2wM3Na,OF1IJ6BSB9ZN,397310,dscher12@gmail.com
1SmX2wM3Na,OF2OP4HJQ7UH,397310,dscher12@gmail.com
1SmX2wM3Na,OFJVS30D3LQ9,397310,dscher12@gmail.com
1SmX2wM3Na,OF8QE3QNN04U,397310,dscher12@gmail.com
1SmX2wM3Na,OFZ5R84E7O8A,397310,dscher12@gmail.com
1SmX2wM3Na,OFUAPZYRMRP6,397308,dscher0@gmail.co
1SmX2wM3Na,OFQ75TZUBL3F,397308,dscher0@gmail.co
1SmX2wM3Na,OF1IJ6BSB9ZN,397308,dscher0@gmail.co
1SmX2wM3Na,OF2OP4HJQ7UH,397308,dscher0@gmail.co
1SmX2wM3Na,OFJVS30D3LQ9,397308,dscher0@gmail.co
1SmX2wM3Na,OF8QE3QNN04U,397308,dscher0@gmail.co
1SmX2wM3Na,OFZ5R84E7O8A,397308,dscher0@gmail.co
1SmX2wM3Na,OF0HSEPT6IRK,397308,dscher0@gmail.co
1SmX2wM3Na,OFTBOIHICFCX,397308,dscher0@gmail.co
1SmX2wM3Na,OF8P1D9MPO9V,397308,dscher0@gmail.co
1SmX2wM3Na,OF7QDWN7LSB8,397308,dscher0@gmail.co
1SmX2wM3Na,OFC17POFH6RR,397308,dscher0@gmail.co
1SmX2wM3Na,OFELYDMXKULV,397308,dscher0@gmail.co
1SmX2wM3Na,OFYX0XXGRFGK,397308,dscher0@gmail.co
1SmX2wM3Na,OF7QDWN7LSB8,397120,rlanetest16082401@rlanetest.com
1SmX2wM3Na,OFC17POFH6RR,397120,rlanetest16082401@rlanetest.com
1SmX2wM3Na,OFELYDMXKULV,397120,rlanetest16082401@rlanetest.com
1SmX2wM3Na,OFYX0XXGRFGK,397120,rlanetest16082401@rlanetest.com
1SmX2wM3Na,OFUAPZYRMRP6,397120,rlanetest16082401@rlanetest.com
1SmX2wM3Na,OFQ75TZUBL3F,397120,rlanetest16082401@rlanetest.com
1SmX2wM3Na,OF1IJ6BSB9ZN,397120,rlanetest16082401@rlanetest.com
1SmX2wM3Na,OF2OP4HJQ7UH,397120,rlanetest16082401@rlanetest.com
1SmX2wM3Na,OFJVS30D3LQ9,397120,rlanetest16082401@rlanetest.com
1SmX2wM3Na,OF8QE3QNN04U,397120,rlanetest16082401@rlanetest.com
1SmX2wM3Na,OFZ5R84E7O8A,397120,rlanetest16082401@rlanetest.com
1SmX2wM3Na,OF0HSEPT6IRK,397120,rlanetest16082401@rlanetest.com
1SmX2wM3Na,OFTBOIHICFCX,397120,rlanetest16082401@rlanetest.com
1SmX2wM3Na,OF8P1D9MPO9V,397120,rlanetest16082401@rlanetest.com
1SmX2wM3Na,OFUAPZYRMRP6,397115,blahblahtest1@blahtest1.com
1SmX2wM3Na,OFQ75TZUBL3F,397115,blahblahtest1@blahtest1.com
1SmX2wM3Na,OF1IJ6BSB9ZN,397115,blahblahtest1@blahtest1.com
1SmX2wM3Na,OF2OP4HJQ7UH,397115,blahblahtest1@blahtest1.com
1SmX2wM3Na,OFJVS30D3LQ9,397115,blahblahtest1@blahtest1.com
1SmX2wM3Na,OF8QE3QNN04U,397115,blahblahtest1@blahtest1.com
1SmX2wM3Na,OFZ5R84E7O8A,397115,blahblahtest1@blahtest1.com
1SmX2wM3Na,OF0HSEPT6IRK,397115,blahblahtest1@blahtest1.com
1SmX2wM3Na,OFTBOIHICFCX,397115,blahblahtest1@blahtest1.com
1SmX2wM3Na,OF8P1D9MPO9V,397115,blahblahtest1@blahtest1.com
1SmX2wM3Na,OF7QDWN7LSB8,397115,blahblahtest1@blahtest1.com
1SmX2wM3Na,OFC17POFH6RR,397115,blahblahtest1@blahtest1.com
1SmX2wM3Na,OFELYDMXKULV,397115,blahblahtest1@blahtest1.com
1SmX2wM3Na,OFYX0XXGRFGK,397115,blahblahtest1@blahtest1.com
1SmX2wM3Na,OFUAPZYRMRP6,397112,dscher32@gmail.com
1SmX2wM3Na,OFQ75TZUBL3F,397112,dscher32@gmail.com
1SmX2wM3Na,OF1IJ6BSB9ZN,397112,dscher32@gmail.com
1SmX2wM3Na,OF2OP4HJQ7UH,397112,dscher32@gmail.com
1SmX2wM3Na,OFJVS30D3LQ9,397112,dscher32@gmail.com
1SmX2wM3Na,OF8QE3QNN04U,397112,dscher32@gmail.com
1SmX2wM3Na,OFZ5R84E7O8A,397112,dscher32@gmail.com
1SmX2wM3Na,OF0HSEPT6IRK,397112,dscher32@gmail.com
1SmX2wM3Na,OFTBOIHICFCX,397112,dscher32@gmail.com
1SmX2wM3Na,OF8P1D9MPO9V,397112,dscher32@gmail.com
1SmX2wM3Na,OF7QDWN7LSB8,397112,dscher32@gmail.com
1SmX2wM3Na,OFC17POFH6RR,397112,dscher32@gmail.com
1SmX2wM3Na,OFELYDMXKULV,397112,dscher32@gmail.com
1SmX2wM3Na,OFYX0XXGRFGK,397112,dscher32@gmail.com
1SmX2wM3Na,OFUAPZYRMRP6,397108,dscher18@gmail.com
1SmX2wM3Na,OFQ75TZUBL3F,397108,dscher18@gmail.com
1SmX2wM3Na,OF1IJ6BSB9ZN,397108,dscher18@gmail.com
1SmX2wM3Na,OF2OP4HJQ7UH,397108,dscher18@gmail.com
1SmX2wM3Na,OFJVS30D3LQ9,397108,dscher18@gmail.com
1SmX2wM3Na,OF8QE3QNN04U,397108,dscher18@gmail.com
1SmX2wM3Na,OFZ5R84E7O8A,397108,dscher18@gmail.com
1SmX2wM3Na,OF0HSEPT6IRK,397108,dscher18@gmail.com
1SmX2wM3Na,OFTBOIHICFCX,397108,dscher18@gmail.com
1SmX2wM3Na,OF8P1D9MPO9V,397108,dscher18@gmail.com
1SmX2wM3Na,OF7QDWN7LSB8,397108,dscher18@gmail.com
1SmX2wM3Na,OFC17POFH6RR,397108,dscher18@gmail.com
1SmX2wM3Na,OFELYDMXKULV,397108,dscher18@gmail.com
1SmX2wM3Na,OFYX0XXGRFGK,397108,dscher18@gmail.com
1SmX2wM3Na,OF0HSEPT6IRK,397107,dscher16@gmail.com
1SmX2wM3Na,OFTBOIHICFCX,397107,dscher16@gmail.com
1SmX2wM3Na,OF8P1D9MPO9V,397107,dscher16@gmail.com
1SmX2wM3Na,OF7QDWN7LSB8,397107,dscher16@gmail.com
1SmX2wM3Na,OFC17POFH6RR,397107,dscher16@gmail.com
1SmX2wM3Na,OFELYDMXKULV,397107,dscher16@gmail.com